%YAML 1.1
%TAG !u! tag:unity3d.com,2011:
--- !u!687078895 &4343727234628468602
SpriteAtlas:
  m_ObjectHideFlags: 0
  m_CorrespondingSourceObject: {fileID: 0}
  m_PrefabInstance: {fileID: 0}
  m_PrefabAsset: {fileID: 0}
  m_Name: Items
  m_EditorData:
    serializedVersion: 2
    textureSettings:
      serializedVersion: 2
      anisoLevel: 1
      compressionQuality: 50
      maxTextureSize: 2048
      textureCompression: 0
      filterMode: 0
      generateMipMaps: 0
      readable: 1
      crunchedCompression: 0
      sRGB: 1
    platformSettings:
    - serializedVersion: 4
      m_BuildTarget: DefaultTexturePlatform
      m_MaxTextureSize: 8192
      m_ResizeAlgorithm: 0
      m_TextureFormat: -1
      m_TextureCompression: 0
      m_CompressionQuality: 50
      m_CrunchedCompression: 0
      m_AllowsAlphaSplitting: 0
      m_Overridden: 0
      m_IgnorePlatformSupport: 0
      m_AndroidETC2FallbackOverride: 0
      m_ForceMaximumCompressionQuality_BC6H_BC7: 0
    packingSettings:
      serializedVersion: 2
      padding: 8
      blockOffset: 1
      allowAlphaSplitting: 0
      enableRotation: 0
      enableTightPacking: 1
      enableAlphaDilation: 0
    secondaryTextureSettings: {}
    variantMultiplier: 1
    packables:
    - {fileID: 102900000, guid: a81d3e8d0c1a065408d7786b227601dc, type: 3}
    bindAsDefault: 1
    isAtlasV2: 0
    cachedData: {fileID: 0}
    packedSpriteRenderDataKeys:
    - 84143fa02ca84a0478d626747c970abd: 21300000
    - 28c4dd3102bd35d4ba09f8c8851388bc: 21300000
    - c08ff2b2e025f1d4f844802d5a944570: 21300000
    - a17102238ef9f614c8d852d111fcad39: 21300000
    - 2c93bcb3b03fca847a2647bc741eb8e0: 21300000
    - dde67094c48d51a45929899a97dd9e0c: 21300000
    - 8c7414467b1702742820fd89ad6cf969: 21300000
    - df5d329693aaf8b41895fdad7b1ffe7d: 21300000
    - 1f4ec0f6637d5654d925610c267a6875: 21300000
    - 8f9ed057ff696c74b9371eadd8d7d6fa: 21300000
    - 3f20a5e7b2abf664ea9957fa8d35444c: -7790264487266994983
    - 3f20a5e7b2abf664ea9957fa8d35444c: 701966525617160925
    - 3f20a5e7b2abf664ea9957fa8d35444c: -2416152583407384230
    - e3eb3bf77bc23fa4bbba35f62a8ecb9c: 21300000
    - 1f1d9c18c8d0e334da9ab67e4f756104: 21300000
    - efaa1ac8eb23b5c45aab8a6be165584d: 21300000
    - b097000946a995a44a5243aad131b334: 21300000
    - 1bca87097e9efec4da90c11f8f4e7a79: 21300000
    - f9096479e9fc49e4780504992fe3cc57: 21300000
    - 436d8a990a1a0ad4fa3e3239c39a361f: 21300000
    - bc6fd70a85dc52841ac5cf381f931cbf: 21300000
    - 03fab22b4c33e494db976282c7bf0706: 21300000
    - d8dcfe6b44520ea42bdacbf27f50021e: 21300000
    - 2f5a242c6c44139439a3a0a97e917ad6: 21300000
    - ffd1febccdf0d1742ad059c0dcf8b3b3: 21300000
    - 63b1268d6177f194dbd1e68be4163908: 21300000
    - 4cf0bf8d9345fd248bda24e00549d652: 21300000
    - 36ea9bcd5e15f884abf4579f1ba0c58d: 21300000
    - fdf5fc0e4fad2d944b51bd2c869b7266: 21300000
    - 8755f43efda891048aa411cbae3e6d65: 21300000
    - d3843c5e109f780428c4016cdd8331ca: 21300000
    - 9ab693afd0b924b4d974e8abb5d445c0: 21300000
  m_MasterAtlas: {fileID: 0}
  m_PackedSprites:
  - {fileID: 21300000, guid: 84143fa02ca84a0478d626747c970abd, type: 3}
  - {fileID: 21300000, guid: 28c4dd3102bd35d4ba09f8c8851388bc, type: 3}
  - {fileID: 21300000, guid: c08ff2b2e025f1d4f844802d5a944570, type: 3}
  - {fileID: 21300000, guid: a17102238ef9f614c8d852d111fcad39, type: 3}
  - {fileID: 21300000, guid: 2c93bcb3b03fca847a2647bc741eb8e0, type: 3}
  - {fileID: 21300000, guid: dde67094c48d51a45929899a97dd9e0c, type: 3}
  - {fileID: 21300000, guid: 8c7414467b1702742820fd89ad6cf969, type: 3}
  - {fileID: 21300000, guid: df5d329693aaf8b41895fdad7b1ffe7d, type: 3}
  - {fileID: 21300000, guid: 1f4ec0f6637d5654d925610c267a6875, type: 3}
  - {fileID: 21300000, guid: 8f9ed057ff696c74b9371eadd8d7d6fa, type: 3}
  - {fileID: -7790264487266994983, guid: 3f20a5e7b2abf664ea9957fa8d35444c, type: 3}
  - {fileID: 701966525617160925, guid: 3f20a5e7b2abf664ea9957fa8d35444c, type: 3}
  - {fileID: -2416152583407384230, guid: 3f20a5e7b2abf664ea9957fa8d35444c, type: 3}
  - {fileID: 21300000, guid: e3eb3bf77bc23fa4bbba35f62a8ecb9c, type: 3}
  - {fileID: 21300000, guid: 1f1d9c18c8d0e334da9ab67e4f756104, type: 3}
  - {fileID: 21300000, guid: efaa1ac8eb23b5c45aab8a6be165584d, type: 3}
  - {fileID: 21300000, guid: b097000946a995a44a5243aad131b334, type: 3}
  - {fileID: 21300000, guid: 1bca87097e9efec4da90c11f8f4e7a79, type: 3}
  - {fileID: 21300000, guid: f9096479e9fc49e4780504992fe3cc57, type: 3}
  - {fileID: 21300000, guid: 436d8a990a1a0ad4fa3e3239c39a361f, type: 3}
  - {fileID: 21300000, guid: bc6fd70a85dc52841ac5cf381f931cbf, type: 3}
  - {fileID: 21300000, guid: 03fab22b4c33e494db976282c7bf0706, type: 3}
  - {fileID: 21300000, guid: d8dcfe6b44520ea42bdacbf27f50021e, type: 3}
  - {fileID: 21300000, guid: 2f5a242c6c44139439a3a0a97e917ad6, type: 3}
  - {fileID: 21300000, guid: ffd1febccdf0d1742ad059c0dcf8b3b3, type: 3}
  - {fileID: 21300000, guid: 63b1268d6177f194dbd1e68be4163908, type: 3}
  - {fileID: 21300000, guid: 4cf0bf8d9345fd248bda24e00549d652, type: 3}
  - {fileID: 21300000, guid: 36ea9bcd5e15f884abf4579f1ba0c58d, type: 3}
  - {fileID: 21300000, guid: fdf5fc0e4fad2d944b51bd2c869b7266, type: 3}
  - {fileID: 21300000, guid: 8755f43efda891048aa411cbae3e6d65, type: 3}
  - {fileID: 21300000, guid: d3843c5e109f780428c4016cdd8331ca, type: 3}
  - {fileID: 21300000, guid: 9ab693afd0b924b4d974e8abb5d445c0, type: 3}
  m_PackedSpriteNamesToIndex:
  - KakaoTalk_20200107_144653407
  - KakaoTalk_20200103_145648952
  - KakaoTalk_20200107_151806243
  - KakaoTalk_20200107_095406028
  - KakaoTalk_20200107_145752627
  - KakaoTalk_20200106_174409357
  - KakaoTalk_20200103_161153064-export
  - KakaoTalk_20200107_155015925
  - KakaoTalk_20200107_154839036
  - KakaoTalk_20200107_155212390
  - KakaoTalk_20200106_101537099-sheet_1
  - KakaoTalk_20200106_101537099-sheet_0
  - KakaoTalk_20200106_101537099-sheet_2
  - KakaoTalk_20200107_145602449
  - KakaoTalk_20200107_162345060
  - KakaoTalk_20200107_154341568
  - KakaoTalk_20200106_174305629
  - ruler
  - KakaoTalk_20200107_155657478
  - S_ItemHeavyOutline_CoinRed_00
  - KakaoTalk_20200106_174305721
  - Gem3
  - KakaoTalk_20200107_153108386
  - KakaoTalk_20200106_104205850
  - KakaoTalk_20200107_153108472
  - KakaoTalk_20200106_101537099
  - KakaoTalk_20200107_145110394
  - KakaoTalk_20200107_095406250
  - Dynamite
  - KakaoTalk_20200107_161311083
  - KakaoTalk_20200107_153108387
  - Bomb
  m_RenderDataMap: {}
  m_Tag: Items
  m_IsVariant: 0
