%YAML 1.1
%TAG !u! tag:unity3d.com,2011:
--- !u!114 &11400000
MonoBehaviour:
  m_ObjectHideFlags: 0
  m_CorrespondingSourceObject: {fileID: 0}
  m_PrefabInstance: {fileID: 0}
  m_PrefabAsset: {fileID: 0}
  m_GameObject: {fileID: 0}
  m_Enabled: 1
  m_EditorHideFlags: 0
  m_Script: {fileID: 15003, guid: 0000000000000000e000000000000000, type: 0}
  m_Name: "Google Console App Bundle \uD504\uB9AC\uC14B"
  m_EditorClassIdentifier: 
  m_BuildTarget: 13
  m_Subtarget: 0
  m_ModuleName: Android
  m_PlatformBuildProfile:
    rid: 3915380799584075777
  m_Scenes:
  - m_enabled: 1
    m_path: Assets/Scenes/MainGame.unity
  references:
    version: 2
    RefIds:
    - rid: 3915380799584075777
      type: {class: AndroidPlatformBuildSettings, ns: UnityEditor.Android, asm: UnityEditor.Android.Extensions}
      data:
        m_Development: 0
        m_ConnectProfiler: 1
        m_BuildWithDeepProfilingSupport: 0
        m_AllowDebugging: 0
        m_WaitForManagedDebugger: 0
        m_ManagedDebuggerFixedPort: 0
        m_ExplicitNullChecks: 0
        m_ExplicitDivideByZeroChecks: 0
        m_ExplicitArrayBoundsChecks: 0
        m_CompressionType: 2
        m_InstallInBuildFolder: 0
        m_BuildSubtarget: 0
        m_BuildSystem: 1
        m_ExportAsGoogleAndroidProject: 0
        m_DebugSymbolLevel: 2
        m_DebugSymbolFormat: 7
        m_CurrentDeploymentTargetId: __builtin__target_default
        m_BuildType: 2
        m_BuildAppBundle: 1
        m_IPAddressToConnect: 
        m_SymlinkSources: 0
